{
  "Description" : "Basic Web Server example using S3 to server a static file",
  "Resources" : {
    "BasicWebServer" : {
      "Type" : "AWS::S3::Bucket",
      "Properties" : {
        "AccessControl" : "PublicRead",
        "WebsiteConfiguration" : {
          "IndexDocument" : "index.html"
        }
      }
    }
  },
  "Outputs" : {
    "URL" : {
      "Description" : "The url of the webpage",
      "Value" : {
        "Fn::GetAtt" : [ "BasicWebServer" , "WebsiteURL" ]
      }
    }
  }
}
